{
  "LazyVim": { "branch": "main", "commit": "12818a6cb499456f4903c5d8e68af43753ebc869" },
  "LuaSnip": { "branch": "master", "commit": "c9b9a22904c97d0eb69ccb9bab76037838326817" },
  "SchemaStore.nvim": { "branch": "main", "commit": "2ff2063191144005eb754356517de65ae45f2e41" },
  "bufferline.nvim": { "branch": "main", "commit": "0b2fd861eee7595015b6561dade52fb060be10c4" },
  "catppuccin": { "branch": "main", "commit": "4fd72a9ab64b393c2c22b168508fd244877fec96" },
  "cmp-buffer": { "branch": "main", "commit": "3022dbc9166796b644a841a02de8dd1cc1d311fa" },
  "cmp-nvim-lsp": { "branch": "main", "commit": "39e2eda76828d88b773cc27a3f61d2ad782c922d" },
  "cmp-path": { "branch": "main", "commit": "91ff86cd9c29299a64f968ebb45846c485725f23" },
  "cmp-tabnine": { "branch": "main", "commit": "d52aae40ee86b62960c31a003352ddfc9e31c8d2" },
  "cmp_luasnip": { "branch": "master", "commit": "98d9cb5c2c38532bd9bdb481067b20fea8f32e90" },
  "conform.nvim": { "branch": "master", "commit": "62eba813b7501b39612146cbf29cd07f1d4ac29c" },
  "crates.nvim": { "branch": "main", "commit": "891063a2dc8471501b9742406a514be62a20c138" },
  "dashboard-nvim": { "branch": "master", "commit": "fabf5feec96185817c732d47d363f34034212685" },
  "diffview.nvim": { "branch": "main", "commit": "4516612fe98ff56ae0415a259ff6361a89419b0a" },
  "dressing.nvim": { "branch": "master", "commit": "c5775a888adbc50652cb370073fcfec963eca93e" },
  "edgy.nvim": { "branch": "main", "commit": "ebb77fde6f5cb2745431c6c0fe57024f66471728" },
  "flash.nvim": { "branch": "main", "commit": "34c7be146a91fec3555c33fe89c7d643f6ef5cf1" },
  "friendly-snippets": { "branch": "main", "commit": "00ebcaa159e817150bd83bfe2d51fa3b3377d5c4" },
  "gitsigns.nvim": { "branch": "main", "commit": "562dc47189ad3c8696dbf460d38603a74d544849" },
  "grug-far.nvim": { "branch": "main", "commit": "85cadf849bdb22540c36da2034d21de0b37c0952" },
  "indent-blankline.nvim": { "branch": "master", "commit": "db926997af951da38e5004ec7b9fbdc480b48f5d" },
  "lazy.nvim": { "branch": "main", "commit": "077102c5bfc578693f12377846d427f49bc50076" },
  "lazydev.nvim": { "branch": "main", "commit": "491452cf1ca6f029e90ad0d0368848fac717c6d2" },
  "lualine.nvim": { "branch": "master", "commit": "b431d228b7bbcdaea818bdc3e25b8cdbe861f056" },
  "luvit-meta": { "branch": "main", "commit": "ce76f6f6cdc9201523a5875a4471dcfe0186eb60" },
  "markdown-preview.nvim": { "branch": "master", "commit": "a923f5fc5ba36a3b17e289dc35dc17f66d0548ee" },
  "markdown.nvim": { "branch": "main", "commit": "2f32e717742ce7f2a312b8f37dcf7deb190fc7ae" },
  "mason-lspconfig.nvim": { "branch": "main", "commit": "482350b050bd413931c2cdd4857443c3da7d57cb" },
  "mason.nvim": { "branch": "main", "commit": "e2f7f9044ec30067bc11800a9e266664b88cda22" },
  "mini.ai": { "branch": "main", "commit": "a9b992b13d22a8db8df6beac25afa59a10b5584d" },
  "mini.comment": { "branch": "main", "commit": "a56581c40c19fa26f2b39da72504398de3173c5a" },
  "mini.icons": { "branch": "main", "commit": "12e7b5d47bfc1b4c5ba4278fb49ec9100138df14" },
  "mini.pairs": { "branch": "main", "commit": "927d19cbdd0e752ab1c7eed87072e71d2cd6ff51" },
  "neo-tree.nvim": { "branch": "main", "commit": "206241e451c12f78969ff5ae53af45616ffc9b72" },
  "neodev.nvim": { "branch": "main", "commit": "46aa467dca16cf3dfe27098042402066d2ae242d" },
  "neogit": { "branch": "master", "commit": "6af8fc6b03210d0ac99398f8eff27c5be7b2ba8a" },
  "noice.nvim": { "branch": "main", "commit": "448bb9c524a7601035449210838e374a30153172" },
  "nui.nvim": { "branch": "main", "commit": "61574ce6e60c815b0a0c4b5655b8486ba58089a1" },
  "nvim-cmp": { "branch": "main", "commit": "ae644feb7b67bf1ce4260c231d1d4300b19c6f30" },
  "nvim-lint": { "branch": "master", "commit": "debabca63c0905b59ce596a55a8e33eafdf66342" },
  "nvim-lspconfig": { "branch": "master", "commit": "a7f0f9c18baa70a3970ea18f9984e03b6f6c2e8a" },
  "nvim-notify": { "branch": "master", "commit": "d333b6f167900f6d9d42a59005d82919830626bf" },
  "nvim-snippets": { "branch": "main", "commit": "56b4052f71220144689caaa2e5b66222ba5661eb" },
  "nvim-treesitter": { "branch": "master", "commit": "8724e7d028ba11604dde94dc4be63f70cccf16e0" },
  "nvim-treesitter-textobjects": { "branch": "master", "commit": "41e3abf6bfd9a9a681eb1f788bdeba91c9004b2b" },
  "nvim-ts-autotag": { "branch": "main", "commit": "0cb76eea80e9c73b88880f0ca78fbd04c5bdcac7" },
  "nvim-ts-context-commentstring": { "branch": "main", "commit": "1b212c2eee76d787bbea6aa5e92a2b534e7b4f8f" },
  "outline.nvim": { "branch": "main", "commit": "02a18194b3d2adfb537dd1a9f21d1fc29dd31382" },
  "persistence.nvim": { "branch": "main", "commit": "f6aad7dde7fcf54148ccfc5f622c6d5badd0cc3d" },
  "plenary.nvim": { "branch": "master", "commit": "ec289423a1693aeae6cd0d503bac2856af74edaa" },
  "project.nvim": { "branch": "main", "commit": "8c6bad7d22eef1b71144b401c9f74ed01526a4fb" },
  "rustaceanvim": { "branch": "master", "commit": "047f9c9d8cd2861745eb9de6c1570ee0875aa795" },
  "telescope-fzf-native.nvim": { "branch": "main", "commit": "cf48d4dfce44e0b9a2e19a008d6ec6ea6f01a83b" },
  "telescope.nvim": { "branch": "master", "commit": "5972437de807c3bc101565175da66a1aa4f8707a" },
  "todo-comments.nvim": { "branch": "main", "commit": "8f45f353dc3649cb9b44cecda96827ea88128584" },
  "tokyonight.nvim": { "branch": "main", "commit": "b0e7c7382a7e8f6456f2a95655983993ffda745e" },
  "trouble.nvim": { "branch": "main", "commit": "6efc446226679fda0547c0fd6a7892fd5f5b15d8" },
  "ts-comments.nvim": { "branch": "main", "commit": "98d7d4dec0af1312d38e288f800bbf6ff562b6ab" },
  "venv-selector.nvim": { "branch": "regexp", "commit": "c43dc6bf8c7e7cf124a991775ed3defe87112d3a" },
  "vimtex": { "branch": "master", "commit": "76ef99f73a5ff10be59836a4af4f928eaa8ad284" },
  "which-key.nvim": { "branch": "main", "commit": "6c1584eb76b55629702716995cca4ae2798a9cca" }
}
